{
	"gameBasket" : {
		"deletedEntityGuids" : [],
		"gameEntities" : [],
		"inventory" : []
	},
	"result" : [{
			"guid" : "c0bb250dfeec4839983692c942f330c2.c",
			"nickname" : "TimRiker"
		}, {
			"guid" : "439df910d0e442f1b96296bf6d58ea8a.c",
			"nickname" : "Gunnar13"
		}, {
			"guid" : "fd4842dd1db041a38ed216961a9e2709.c",
			"nickname" : "Bordoc"
		}
	]
}
