{
	"gameBasket" : {
		"deletedEntityGuids" : [],
		"gameEntities" : [],
		"inventory" : []
	},
	"result" : [["36df58096022449c8aa7b88851ae9649.d", 1366820211960, {
				"plext" : {
					"text" : "Chadad linked Thomas Butterfield (13134 S 5800 W, Herriman, UT) to Pioneer Rock Church (13044 S 6000 W, Herriman, UT)",
					"markup" : [["PLAYER", {
								"plain" : "Chadad",
								"guid" : "e0421344f40243398c613c652d340e12.c",
								"team" : "ALIENS"
							}
						], ["TEXT", {
								"plain" : " linked "
							}
						], ["PORTAL", {
								"name" : "Thomas Butterfield",
								"plain" : "Thomas Butterfield (13134 S 5800 W, Herriman, UT)",
								"team" : "ALIENS",
								"latE6" : 40514273,
								"address" : "13134 S 5800 W, Herriman, UT",
								"lngE6" : -112029145,
								"guid" : "269a02a0a3714ca7b66d912fb4c767b8.12"
							}
						], ["TEXT", {
								"plain" : " to "
							}
						], ["PORTAL", {
								"name" : "Pioneer Rock Church",
								"plain" : "Pioneer Rock Church (13044 S 6000 W, Herriman, UT)",
								"team" : "ALIENS",
								"latE6" : 40515005,
								"address" : "13044 S 6000 W, Herriman, UT",
								"lngE6" : -112032851,
								"guid" : "0466271690294c528ecc9d763af54866.12"
							}
						]],
					"plextType" : "SYSTEM_BROADCAST",
					"team" : "ALIENS"
				}
			}
		], ["cd3719cd7beb4c53b20ec47f0b4dac3a.d", 1366820211960, {
				"plext" : {
					"text" : "Chadad created a Control Field @Thomas Butterfield (13134 S 5800 W, Herriman, UT) +6 MUs",
					"markup" : [["PLAYER", {
								"plain" : "Chadad",
								"guid" : "e0421344f40243398c613c652d340e12.c",
								"team" : "ALIENS"
							}
						], ["TEXT", {
								"plain" : " created a Control Field @"
							}
						], ["PORTAL", {
								"name" : "Thomas Butterfield",
								"plain" : "Thomas Butterfield (13134 S 5800 W, Herriman, UT)",
								"team" : "ALIENS",
								"latE6" : 40514273,
								"address" : "13134 S 5800 W, Herriman, UT",
								"lngE6" : -112029145,
								"guid" : "269a02a0a3714ca7b66d912fb4c767b8.12"
							}
						], ["TEXT", {
								"plain" : " +"
							}
						], ["TEXT", {
								"plain" : "6"
							}
						], ["TEXT", {
								"plain" : " MUs"
							}
						]],
					"plextType" : "SYSTEM_BROADCAST",
					"team" : "ALIENS"
				}
			}
		], ["07a72ab2c4cb4d5583754c67a062a5bd.d", 1366820113213, {
				"plext" : {
					"text" : "Acshun destroyed the Link IMAA Tae Kwon Do (West Harvest Hills Boulevard, Saratoga Springs, UT) to Veterans Memorial at camp Will (17001-17713 South Redwood Road, Bluffdale, UT)",
					"markup" : [["PLAYER", {
								"plain" : "Acshun",
								"guid" : "3233034eb36c4d8dbedb2bbfa17a8361.c",
								"team" : "RESISTANCE"
							}
						], ["TEXT", {
								"plain" : " destroyed the Link "
							}
						], ["PORTAL", {
								"name" : "IMAA Tae Kwon Do",
								"plain" : "IMAA Tae Kwon Do (West Harvest Hills Boulevard, Saratoga Springs, UT)",
								"team" : "ALIENS",
								"latE6" : 40399045,
								"address" : "West Harvest Hills Boulevard, Saratoga Springs, UT",
								"lngE6" : -111920049,
								"guid" : "cc025eac5d80478b95d2983d31d8c4be.11"
							}
						], ["TEXT", {
								"plain" : " to "
							}
						], ["PORTAL", {
								"name" : "Veterans Memorial at camp Will",
								"plain" : "Veterans Memorial at camp Will (17001-17713 South Redwood Road, Bluffdale, UT)",
								"team" : "ALIENS",
								"latE6" : 40440174,
								"address" : "17001-17713 South Redwood Road, Bluffdale, UT",
								"lngE6" : -111931513,
								"guid" : "3cb28e476495467995b51650a4fa3e7a.11"
							}
						]],
					"plextType" : "SYSTEM_BROADCAST",
					"team" : "ALIENS"
				}
			}
		], ["63e7471274a041a5943dca4151f7f893.d", 1366820113213, {
				"plext" : {
					"text" : "Acshun destroyed a Control Field @Harvest Hills Meetinghouse 4 (2212 North Harvest Moon Drive, Saratoga Springs, UT) -3 MUs",
					"markup" : [["PLAYER", {
								"plain" : "Acshun",
								"guid" : "3233034eb36c4d8dbedb2bbfa17a8361.c",
								"team" : "RESISTANCE"
							}
						], ["TEXT", {
								"plain" : " destroyed a Control Field @"
							}
						], ["PORTAL", {
								"name" : "Harvest Hills Meetinghouse 4",
								"plain" : "Harvest Hills Meetinghouse 4 (2212 North Harvest Moon Drive, Saratoga Springs, UT)",
								"team" : "ALIENS",
								"latE6" : 40401916,
								"address" : "2212 North Harvest Moon Drive, Saratoga Springs, UT",
								"lngE6" : -111925108,
								"guid" : "05aa59186d6a42af9cf9974020aabef6.11"
							}
						], ["TEXT", {
								"plain" : " -"
							}
						], ["TEXT", {
								"plain" : "3"
							}
						], ["TEXT", {
								"plain" : " MUs"
							}
						]],
					"plextType" : "SYSTEM_BROADCAST",
					"team" : "RESISTANCE"
				}
			}
		], ["651c3f9c32f84b799685c24dac1a7c3d.d", 1366820063269, {
				"plext" : {
					"text" : "[secure] LXXI: @fortify45 congratulations",
					"markup" : [["SECURE", {
								"plain" : "[secure] "
							}
						], ["SENDER", {
								"plain" : "LXXI: ",
								"guid" : "e9c80611d18f4765b30f0e64023a4755.c",
								"team" : "ALIENS"
							}
						], ["TEXT", {
								"plain" : ""
							}
						], ["AT_PLAYER", {
								"plain" : "@fortify45",
								"guid" : "7efd28d64ce84c7792500f38e5b859a2.c",
								"team" : "ALIENS"
							}
						], ["TEXT", {
								"plain" : " congratulations"
							}
						]],
					"plextType" : "PLAYER_GENERATED",
					"team" : "ALIENS"
				}
			}
		], ["f1393cdd819641229c9d9cffdd88a2bb.d", 1366820040109, {
				"plext" : {
					"text" : "[secure] corkster: @Aikisenshi were u from ",
					"markup" : [["SECURE", {
								"plain" : "[secure] "
							}
						], ["SENDER", {
								"plain" : "corkster: ",
								"guid" : "d03756dd095a4987ab9a713de3359964.c",
								"team" : "ALIENS"
							}
						], ["TEXT", {
								"plain" : ""
							}
						], ["AT_PLAYER", {
								"plain" : "@Aikisenshi",
								"guid" : "cce20a50a61e4fa6bf55ea60bd4df9f6.c",
								"team" : "ALIENS"
							}
						], ["TEXT", {
								"plain" : " were u from "
							}
						]],
					"plextType" : "PLAYER_GENERATED",
					"team" : "ALIENS"
				}
			}
		], ["99baa65b3b054ab29f503548956b1792.d", 1366819984824, {
				"plext" : {
					"text" : "[secure] fortify45: Level 6 baby! Woot!",
					"markup" : [["SECURE", {
								"plain" : "[secure] "
							}
						], ["SENDER", {
								"plain" : "fortify45: ",
								"guid" : "7efd28d64ce84c7792500f38e5b859a2.c",
								"team" : "ALIENS"
							}
						], ["TEXT", {
								"plain" : "Level 6 baby! Woot!"
							}
						]],
					"plextType" : "PLAYER_GENERATED",
					"team" : "ALIENS"
				}
			}
		], ["7fff7baab8264a7391ec3c377af92a1c.d", 1366819955062, {
				"plext" : {
					"text" : "fortify45 created a Control Field @Science and Industry Building (4554 South 2025 West, Salt Lake Community College Bookstore, Salt Lake City, UT) +11 MUs",
					"markup" : [["PLAYER", {
								"plain" : "fortify45",
								"guid" : "7efd28d64ce84c7792500f38e5b859a2.c",
								"team" : "ALIENS"
							}
						], ["TEXT", {
								"plain" : " created a Control Field @"
							}
						], ["PORTAL", {
								"name" : "Science and Industry Building",
								"plain" : "Science and Industry Building (4554 South 2025 West, Salt Lake Community College Bookstore, Salt Lake City, UT)",
								"team" : "ALIENS",
								"latE6" : 40671741,
								"address" : "4554 South 2025 West, Salt Lake Community College Bookstore, Salt Lake City, UT",
								"lngE6" : -111945200,
								"guid" : "9c388c4b32c94336967e5329791561ab.11"
							}
						], ["TEXT", {
								"plain" : " +"
							}
						], ["TEXT", {
								"plain" : "11"
							}
						], ["TEXT", {
								"plain" : " MUs"
							}
						]],
					"plextType" : "SYSTEM_BROADCAST",
					"team" : "ALIENS"
				}
			}
		], ["abe444e13ad94672839f7b796960c8d4.d", 1366819955062, {
				"plext" : {
					"text" : "fortify45 linked Science and Industry Building (4554 South 2025 West, Salt Lake Community College Bookstore, Salt Lake City, UT) to Applied Technology Center (Bruin Boulevard, Taylorsville, UT)",
					"markup" : [["PLAYER", {
								"plain" : "fortify45",
								"guid" : "7efd28d64ce84c7792500f38e5b859a2.c",
								"team" : "ALIENS"
							}
						], ["TEXT", {
								"plain" : " linked "
							}
						], ["PORTAL", {
								"name" : "Science and Industry Building",
								"plain" : "Science and Industry Building (4554 South 2025 West, Salt Lake Community College Bookstore, Salt Lake City, UT)",
								"team" : "ALIENS",
								"latE6" : 40671741,
								"address" : "4554 South 2025 West, Salt Lake Community College Bookstore, Salt Lake City, UT",
								"lngE6" : -111945200,
								"guid" : "9c388c4b32c94336967e5329791561ab.11"
							}
						], ["TEXT", {
								"plain" : " to "
							}
						], ["PORTAL", {
								"name" : "Applied Technology Center",
								"plain" : "Applied Technology Center (Bruin Boulevard, Taylorsville, UT)",
								"team" : "ALIENS",
								"latE6" : 40670850,
								"address" : "Bruin Boulevard, Taylorsville, UT",
								"lngE6" : -111942721,
								"guid" : "7efb0856fcdf4a75bb9fb0eb0fdac9c2.11"
							}
						]],
					"plextType" : "SYSTEM_BROADCAST",
					"team" : "ALIENS"
				}
			}
		], ["3350d745ab1f40f286c6deb3c678ea75.d", 1366819943108, {
				"plext" : {
					"text" : "fortify45 created a Control Field @Science and Industry Building (4554 South 2025 West, Salt Lake Community College Bookstore, Salt Lake City, UT) +1 MUs",
					"markup" : [["PLAYER", {
								"plain" : "fortify45",
								"guid" : "7efd28d64ce84c7792500f38e5b859a2.c",
								"team" : "ALIENS"
							}
						], ["TEXT", {
								"plain" : " created a Control Field @"
							}
						], ["PORTAL", {
								"name" : "Science and Industry Building",
								"plain" : "Science and Industry Building (4554 South 2025 West, Salt Lake Community College Bookstore, Salt Lake City, UT)",
								"team" : "ALIENS",
								"latE6" : 40671741,
								"address" : "4554 South 2025 West, Salt Lake Community College Bookstore, Salt Lake City, UT",
								"lngE6" : -111945200,
								"guid" : "9c388c4b32c94336967e5329791561ab.11"
							}
						], ["TEXT", {
								"plain" : " +"
							}
						], ["TEXT", {
								"plain" : "1"
							}
						], ["TEXT", {
								"plain" : " MUs"
							}
						]],
					"plextType" : "SYSTEM_BROADCAST",
					"team" : "ALIENS"
				}
			}
		], ["8248d19944fd40a98bedcdf11f12da18.d", 1366819943108, {
				"plext" : {
					"text" : "fortify45 linked Science and Industry Building (4554 South 2025 West, Salt Lake Community College Bookstore, Salt Lake City, UT) to Abstract Elephant (4554 South 2025 West, Salt Lake Community College Bookstore, Salt Lake City, UT)",
					"markup" : [["PLAYER", {
								"plain" : "fortify45",
								"guid" : "7efd28d64ce84c7792500f38e5b859a2.c",
								"team" : "ALIENS"
							}
						], ["TEXT", {
								"plain" : " linked "
							}
						], ["PORTAL", {
								"name" : "Science and Industry Building",
								"plain" : "Science and Industry Building (4554 South 2025 West, Salt Lake Community College Bookstore, Salt Lake City, UT)",
								"team" : "ALIENS",
								"latE6" : 40671741,
								"address" : "4554 South 2025 West, Salt Lake Community College Bookstore, Salt Lake City, UT",
								"lngE6" : -111945200,
								"guid" : "9c388c4b32c94336967e5329791561ab.11"
							}
						], ["TEXT", {
								"plain" : " to "
							}
						], ["PORTAL", {
								"name" : "Abstract Elephant",
								"plain" : "Abstract Elephant (4554 South 2025 West, Salt Lake Community College Bookstore, Salt Lake City, UT)",
								"team" : "ALIENS",
								"latE6" : 40672166,
								"address" : "4554 South 2025 West, Salt Lake Community College Bookstore, Salt Lake City, UT",
								"lngE6" : -111944887,
								"guid" : "9f70ddd97d544cc18d2ebe69512d5bec.11"
							}
						]],
					"plextType" : "SYSTEM_BROADCAST",
					"team" : "ALIENS"
				}
			}
		], ["6b38a351ac0545ac875ee7f80940cf44.d", 1366819930484, {
				"plext" : {
					"text" : "fortify45 linked Science and Industry Building (4554 South 2025 West, Salt Lake Community College Bookstore, Salt Lake City, UT) to Ribbon Dancers at SLCC (4554 South 2025 West, Salt Lake Community College, Salt Lake City, UT)",
					"markup" : [["PLAYER", {
								"plain" : "fortify45",
								"guid" : "7efd28d64ce84c7792500f38e5b859a2.c",
								"team" : "ALIENS"
							}
						], ["TEXT", {
								"plain" : " linked "
							}
						], ["PORTAL", {
								"name" : "Science and Industry Building",
								"plain" : "Science and Industry Building (4554 South 2025 West, Salt Lake Community College Bookstore, Salt Lake City, UT)",
								"team" : "ALIENS",
								"latE6" : 40671741,
								"address" : "4554 South 2025 West, Salt Lake Community College Bookstore, Salt Lake City, UT",
								"lngE6" : -111945200,
								"guid" : "9c388c4b32c94336967e5329791561ab.11"
							}
						], ["TEXT", {
								"plain" : " to "
							}
						], ["PORTAL", {
								"name" : "Ribbon Dancers at SLCC",
								"plain" : "Ribbon Dancers at SLCC (4554 South 2025 West, Salt Lake Community College, Salt Lake City, UT)",
								"team" : "ALIENS",
								"latE6" : 40672604,
								"address" : "4554 South 2025 West, Salt Lake Community College, Salt Lake City, UT",
								"lngE6" : -111945018,
								"guid" : "14feb173d14348979634071e4c601251.11"
							}
						]],
					"plextType" : "SYSTEM_BROADCAST",
					"team" : "ALIENS"
				}
			}
		], ["00f5b0d6420444ecbe199b36c4835bde.d", 1366819875838, {
				"plext" : {
					"text" : "Ston deployed an L8 Resonator on Draper City Hall (1020 Pioneer Road, Draper, UT)",
					"markup" : [["PLAYER", {
								"plain" : "Ston",
								"guid" : "52a0d0a6b7c34466b91b74b3527b17f3.c",
								"team" : "RESISTANCE"
							}
						], ["TEXT", {
								"plain" : " deployed an "
							}
						], ["TEXT", {
								"plain" : "L8"
							}
						], ["TEXT", {
								"plain" : " Resonator on "
							}
						], ["PORTAL", {
								"name" : "Draper City Hall",
								"plain" : "Draper City Hall (1020 Pioneer Road, Draper, UT)",
								"team" : "RESISTANCE",
								"latE6" : 40524974,
								"address" : "1020 Pioneer Road, Draper, UT",
								"lngE6" : -111862833,
								"guid" : "17f702aabce34558a9621617bb05e2ea.11"
							}
						]],
					"plextType" : "SYSTEM_BROADCAST",
					"team" : "RESISTANCE"
				}
			}
		], ["8c9c85e940cc4236b1ed21c9eed32d08.d", 1366819866724, {
				"plext" : {
					"text" : "Ston deployed an L7 Resonator on Draper City Hall (1020 Pioneer Road, Draper, UT)",
					"markup" : [["PLAYER", {
								"plain" : "Ston",
								"guid" : "52a0d0a6b7c34466b91b74b3527b17f3.c",
								"team" : "RESISTANCE"
							}
						], ["TEXT", {
								"plain" : " deployed an "
							}
						], ["TEXT", {
								"plain" : "L7"
							}
						], ["TEXT", {
								"plain" : " Resonator on "
							}
						], ["PORTAL", {
								"name" : "Draper City Hall",
								"plain" : "Draper City Hall (1020 Pioneer Road, Draper, UT)",
								"team" : "RESISTANCE",
								"latE6" : 40524974,
								"address" : "1020 Pioneer Road, Draper, UT",
								"lngE6" : -111862833,
								"guid" : "17f702aabce34558a9621617bb05e2ea.11"
							}
						]],
					"plextType" : "SYSTEM_BROADCAST",
					"team" : "RESISTANCE"
				}
			}
		], ["4012a91a3074443e84e166d68b8edf4c.d", 1366819831788, {
				"plext" : {
					"text" : "codefoote destroyed an L2 Resonator on Draper City Hall (1020 Pioneer Road, Draper, UT)",
					"markup" : [["PLAYER", {
								"plain" : "codefoote",
								"guid" : "44d88711d9c54cb7bf9fd10aa57d6c5e.c",
								"team" : "ALIENS"
							}
						], ["TEXT", {
								"plain" : " destroyed an "
							}
						], ["TEXT", {
								"plain" : "L2"
							}
						], ["TEXT", {
								"plain" : " Resonator on "
							}
						], ["PORTAL", {
								"name" : "Draper City Hall",
								"plain" : "Draper City Hall (1020 Pioneer Road, Draper, UT)",
								"team" : "RESISTANCE",
								"latE6" : 40524974,
								"address" : "1020 Pioneer Road, Draper, UT",
								"lngE6" : -111862833,
								"guid" : "17f702aabce34558a9621617bb05e2ea.11"
							}
						]],
					"plextType" : "SYSTEM_BROADCAST",
					"team" : "ALIENS"
				}
			}
		], ["917242544d214bf8ab09311445d358af.d", 1366819831788, {
				"plext" : {
					"text" : "codefoote destroyed an L2 Resonator on Draper City Hall (1020 Pioneer Road, Draper, UT)",
					"markup" : [["PLAYER", {
								"plain" : "codefoote",
								"guid" : "44d88711d9c54cb7bf9fd10aa57d6c5e.c",
								"team" : "ALIENS"
							}
						], ["TEXT", {
								"plain" : " destroyed an "
							}
						], ["TEXT", {
								"plain" : "L2"
							}
						], ["TEXT", {
								"plain" : " Resonator on "
							}
						], ["PORTAL", {
								"name" : "Draper City Hall",
								"plain" : "Draper City Hall (1020 Pioneer Road, Draper, UT)",
								"team" : "RESISTANCE",
								"latE6" : 40524974,
								"address" : "1020 Pioneer Road, Draper, UT",
								"lngE6" : -111862833,
								"guid" : "17f702aabce34558a9621617bb05e2ea.11"
							}
						]],
					"plextType" : "SYSTEM_BROADCAST",
					"team" : "ALIENS"
				}
			}
		], ["000ad8b8fd27411fa5fc41af71c88820.d", 1366819730115, {
				"plext" : {
					"text" : "LXXI created a Control Field @Herriman Pioneers (6018 Heritage Hill Drive, Herriman, UT) +28 MUs",
					"markup" : [["PLAYER", {
								"plain" : "LXXI",
								"guid" : "e9c80611d18f4765b30f0e64023a4755.c",
								"team" : "ALIENS"
							}
						], ["TEXT", {
								"plain" : " created a Control Field @"
							}
						], ["PORTAL", {
								"name" : "Herriman Pioneers",
								"plain" : "Herriman Pioneers (6018 Heritage Hill Drive, Herriman, UT)",
								"team" : "ALIENS",
								"latE6" : 40524903,
								"address" : "6018 Heritage Hill Drive, Herriman, UT",
								"lngE6" : -112035335,
								"guid" : "5d7694c1776d4b12b23856c49e905fb8.11"
							}
						], ["TEXT", {
								"plain" : " +"
							}
						], ["TEXT", {
								"plain" : "28"
							}
						], ["TEXT", {
								"plain" : " MUs"
							}
						]],
					"plextType" : "SYSTEM_BROADCAST",
					"team" : "ALIENS"
				}
			}
		], ["b7813edff8ed4f5786f02c49c6089d92.d", 1366819730115, {
				"plext" : {
					"text" : "LXXI linked Herriman Pioneers (6018 Heritage Hill Drive, Herriman, UT) to Herriman City Cemetery Memoria (6018 Heritage Hill Dr, Herriman, UT)",
					"markup" : [["PLAYER", {
								"plain" : "LXXI",
								"guid" : "e9c80611d18f4765b30f0e64023a4755.c",
								"team" : "ALIENS"
							}
						], ["TEXT", {
								"plain" : " linked "
							}
						], ["PORTAL", {
								"name" : "Herriman Pioneers",
								"plain" : "Herriman Pioneers (6018 Heritage Hill Drive, Herriman, UT)",
								"team" : "ALIENS",
								"latE6" : 40524903,
								"address" : "6018 Heritage Hill Drive, Herriman, UT",
								"lngE6" : -112035335,
								"guid" : "5d7694c1776d4b12b23856c49e905fb8.11"
							}
						], ["TEXT", {
								"plain" : " to "
							}
						], ["PORTAL", {
								"name" : "Herriman City Cemetery Memoria",
								"plain" : "Herriman City Cemetery Memoria (6018 Heritage Hill Dr, Herriman, UT)",
								"team" : "ALIENS",
								"latE6" : 40525059,
								"address" : "6018 Heritage Hill Dr, Herriman, UT",
								"lngE6" : -112034950,
								"guid" : "2a9f491a86c94f8dbefd305f5d6ea6fc.12"
							}
						]],
					"plextType" : "SYSTEM_BROADCAST",
					"team" : "ALIENS"
				}
			}
		], ["f5172bcb46bf4c47bddbd0ec7b3475c6.d", 1366819730115, {
				"plext" : {
					"text" : "LXXI created a Control Field @Herriman Pioneers (6018 Heritage Hill Drive, Herriman, UT) +3 MUs",
					"markup" : [["PLAYER", {
								"plain" : "LXXI",
								"guid" : "e9c80611d18f4765b30f0e64023a4755.c",
								"team" : "ALIENS"
							}
						], ["TEXT", {
								"plain" : " created a Control Field @"
							}
						], ["PORTAL", {
								"name" : "Herriman Pioneers",
								"plain" : "Herriman Pioneers (6018 Heritage Hill Drive, Herriman, UT)",
								"team" : "ALIENS",
								"latE6" : 40524903,
								"address" : "6018 Heritage Hill Drive, Herriman, UT",
								"lngE6" : -112035335,
								"guid" : "5d7694c1776d4b12b23856c49e905fb8.11"
							}
						], ["TEXT", {
								"plain" : " +"
							}
						], ["TEXT", {
								"plain" : "3"
							}
						], ["TEXT", {
								"plain" : " MUs"
							}
						]],
					"plextType" : "SYSTEM_BROADCAST",
					"team" : "ALIENS"
				}
			}
		], ["063f9e577cb748338a0f39b5d0c19f67.d", 1366819720438, {
				"plext" : {
					"text" : "LXXII linked Herriman Pioneers (6018 Heritage Hill Drive, Herriman, UT) to Herriman War Veterans Memorial (6018 Heritage Hill Dr, Herriman, UT)",
					"markup" : [["PLAYER", {
								"plain" : "LXXII",
								"guid" : "e5085fd9791545b5a44f0c125ccd8b41.c",
								"team" : "ALIENS"
							}
						], ["TEXT", {
								"plain" : " linked "
							}
						], ["PORTAL", {
								"name" : "Herriman Pioneers",
								"plain" : "Herriman Pioneers (6018 Heritage Hill Drive, Herriman, UT)",
								"team" : "ALIENS",
								"latE6" : 40524903,
								"address" : "6018 Heritage Hill Drive, Herriman, UT",
								"lngE6" : -112035335,
								"guid" : "5d7694c1776d4b12b23856c49e905fb8.11"
							}
						], ["TEXT", {
								"plain" : " to "
							}
						], ["PORTAL", {
								"name" : "Herriman War Veterans Memorial",
								"plain" : "Herriman War Veterans Memorial (6018 Heritage Hill Dr, Herriman, UT)",
								"team" : "ALIENS",
								"latE6" : 40524818,
								"address" : "6018 Heritage Hill Dr, Herriman, UT",
								"lngE6" : -112035095,
								"guid" : "5867e53b8a8a46278854873178988152.12"
							}
						]],
					"plextType" : "SYSTEM_BROADCAST",
					"team" : "ALIENS"
				}
			}
		], ["ab8c3e9702154a20a50f5d6956c40a57.d", 1366819720438, {
				"plext" : {
					"text" : "LXXII created a Control Field @Herriman Pioneers (6018 Heritage Hill Drive, Herriman, UT) +1 MUs",
					"markup" : [["PLAYER", {
								"plain" : "LXXII",
								"guid" : "e5085fd9791545b5a44f0c125ccd8b41.c",
								"team" : "ALIENS"
							}
						], ["TEXT", {
								"plain" : " created a Control Field @"
							}
						], ["PORTAL", {
								"name" : "Herriman Pioneers",
								"plain" : "Herriman Pioneers (6018 Heritage Hill Drive, Herriman, UT)",
								"team" : "ALIENS",
								"latE6" : 40524903,
								"address" : "6018 Heritage Hill Drive, Herriman, UT",
								"lngE6" : -112035335,
								"guid" : "5d7694c1776d4b12b23856c49e905fb8.11"
							}
						], ["TEXT", {
								"plain" : " +"
							}
						], ["TEXT", {
								"plain" : "1"
							}
						], ["TEXT", {
								"plain" : " MUs"
							}
						]],
					"plextType" : "SYSTEM_BROADCAST",
					"team" : "ALIENS"
				}
			}
		], ["ba15a37b0d72478bb5b1062805bd84c4.d", 1366819720438, {
				"plext" : {
					"text" : "LXXII created a Control Field @Herriman Pioneers (6018 Heritage Hill Drive, Herriman, UT) +1 MUs",
					"markup" : [["PLAYER", {
								"plain" : "LXXII",
								"guid" : "e5085fd9791545b5a44f0c125ccd8b41.c",
								"team" : "ALIENS"
							}
						], ["TEXT", {
								"plain" : " created a Control Field @"
							}
						], ["PORTAL", {
								"name" : "Herriman Pioneers",
								"plain" : "Herriman Pioneers (6018 Heritage Hill Drive, Herriman, UT)",
								"team" : "ALIENS",
								"latE6" : 40524903,
								"address" : "6018 Heritage Hill Drive, Herriman, UT",
								"lngE6" : -112035335,
								"guid" : "5d7694c1776d4b12b23856c49e905fb8.11"
							}
						], ["TEXT", {
								"plain" : " +"
							}
						], ["TEXT", {
								"plain" : "1"
							}
						], ["TEXT", {
								"plain" : " MUs"
							}
						]],
					"plextType" : "SYSTEM_BROADCAST",
					"team" : "ALIENS"
				}
			}
		], ["72ffcf37a4f1430fa381b3c8d116f1b8.d", 1366819706082, {
				"plext" : {
					"text" : "LXXI linked Herriman Pioneers (6018 Heritage Hill Drive, Herriman, UT) to Pioneer Rock Church (13044 S 6000 W, Herriman, UT)",
					"markup" : [["PLAYER", {
								"plain" : "LXXI",
								"guid" : "e9c80611d18f4765b30f0e64023a4755.c",
								"team" : "ALIENS"
							}
						], ["TEXT", {
								"plain" : " linked "
							}
						], ["PORTAL", {
								"name" : "Herriman Pioneers",
								"plain" : "Herriman Pioneers (6018 Heritage Hill Drive, Herriman, UT)",
								"team" : "ALIENS",
								"latE6" : 40524903,
								"address" : "6018 Heritage Hill Drive, Herriman, UT",
								"lngE6" : -112035335,
								"guid" : "5d7694c1776d4b12b23856c49e905fb8.11"
							}
						], ["TEXT", {
								"plain" : " to "
							}
						], ["PORTAL", {
								"name" : "Pioneer Rock Church",
								"plain" : "Pioneer Rock Church (13044 S 6000 W, Herriman, UT)",
								"team" : "ALIENS",
								"latE6" : 40515005,
								"address" : "13044 S 6000 W, Herriman, UT",
								"lngE6" : -112032851,
								"guid" : "0466271690294c528ecc9d763af54866.12"
							}
						]],
					"plextType" : "SYSTEM_BROADCAST",
					"team" : "ALIENS"
				}
			}
		], ["d3746fcae5dc4682a01312945e34d0eb.d", 1366819706082, {
				"plext" : {
					"text" : "LXXI created a Control Field @Herriman Pioneers (6018 Heritage Hill Drive, Herriman, UT) +106 MUs",
					"markup" : [["PLAYER", {
								"plain" : "LXXI",
								"guid" : "e9c80611d18f4765b30f0e64023a4755.c",
								"team" : "ALIENS"
							}
						], ["TEXT", {
								"plain" : " created a Control Field @"
							}
						], ["PORTAL", {
								"name" : "Herriman Pioneers",
								"plain" : "Herriman Pioneers (6018 Heritage Hill Drive, Herriman, UT)",
								"team" : "ALIENS",
								"latE6" : 40524903,
								"address" : "6018 Heritage Hill Drive, Herriman, UT",
								"lngE6" : -112035335,
								"guid" : "5d7694c1776d4b12b23856c49e905fb8.11"
							}
						], ["TEXT", {
								"plain" : " +"
							}
						], ["TEXT", {
								"plain" : "106"
							}
						], ["TEXT", {
								"plain" : " MUs"
							}
						]],
					"plextType" : "SYSTEM_BROADCAST",
					"team" : "ALIENS"
				}
			}
		], ["2e09d40f09524baabf82d63a019912b2.d", 1366819705499, {
				"plext" : {
					"text" : "LXXII created a Control Field @Herriman Pioneers (6018 Heritage Hill Drive, Herriman, UT) +28 MUs",
					"markup" : [["PLAYER", {
								"plain" : "LXXII",
								"guid" : "e5085fd9791545b5a44f0c125ccd8b41.c",
								"team" : "ALIENS"
							}
						], ["TEXT", {
								"plain" : " created a Control Field @"
							}
						], ["PORTAL", {
								"name" : "Herriman Pioneers",
								"plain" : "Herriman Pioneers (6018 Heritage Hill Drive, Herriman, UT)",
								"team" : "ALIENS",
								"latE6" : 40524903,
								"address" : "6018 Heritage Hill Drive, Herriman, UT",
								"lngE6" : -112035335,
								"guid" : "5d7694c1776d4b12b23856c49e905fb8.11"
							}
						], ["TEXT", {
								"plain" : " +"
							}
						], ["TEXT", {
								"plain" : "28"
							}
						], ["TEXT", {
								"plain" : " MUs"
							}
						]],
					"plextType" : "SYSTEM_BROADCAST",
					"team" : "ALIENS"
				}
			}
		], ["ac9283efdde443a0a0d4f8ac8ebd8800.d", 1366819705499, {
				"plext" : {
					"text" : "LXXII created a Control Field @Herriman Pioneers (6018 Heritage Hill Drive, Herriman, UT) +3 MUs",
					"markup" : [["PLAYER", {
								"plain" : "LXXII",
								"guid" : "e5085fd9791545b5a44f0c125ccd8b41.c",
								"team" : "ALIENS"
							}
						], ["TEXT", {
								"plain" : " created a Control Field @"
							}
						], ["PORTAL", {
								"name" : "Herriman Pioneers",
								"plain" : "Herriman Pioneers (6018 Heritage Hill Drive, Herriman, UT)",
								"team" : "ALIENS",
								"latE6" : 40524903,
								"address" : "6018 Heritage Hill Drive, Herriman, UT",
								"lngE6" : -112035335,
								"guid" : "5d7694c1776d4b12b23856c49e905fb8.11"
							}
						], ["TEXT", {
								"plain" : " +"
							}
						], ["TEXT", {
								"plain" : "3"
							}
						], ["TEXT", {
								"plain" : " MUs"
							}
						]],
					"plextType" : "SYSTEM_BROADCAST",
					"team" : "ALIENS"
				}
			}
		], ["db536a30f7714382a2d70739d0ecce98.d", 1366819705499, {
				"plext" : {
					"text" : "LXXII linked Herriman Pioneers (6018 Heritage Hill Drive, Herriman, UT) to Herriman City Cemetery Memoria (6018 Heritage Hill Dr, Herriman, UT)",
					"markup" : [["PLAYER", {
								"plain" : "LXXII",
								"guid" : "e5085fd9791545b5a44f0c125ccd8b41.c",
								"team" : "ALIENS"
							}
						], ["TEXT", {
								"plain" : " linked "
							}
						], ["PORTAL", {
								"name" : "Herriman Pioneers",
								"plain" : "Herriman Pioneers (6018 Heritage Hill Drive, Herriman, UT)",
								"team" : "ALIENS",
								"latE6" : 40524903,
								"address" : "6018 Heritage Hill Drive, Herriman, UT",
								"lngE6" : -112035335,
								"guid" : "5d7694c1776d4b12b23856c49e905fb8.11"
							}
						], ["TEXT", {
								"plain" : " to "
							}
						], ["PORTAL", {
								"name" : "Herriman City Cemetery Memoria",
								"plain" : "Herriman City Cemetery Memoria (6018 Heritage Hill Dr, Herriman, UT)",
								"team" : "ALIENS",
								"latE6" : 40525059,
								"address" : "6018 Heritage Hill Dr, Herriman, UT",
								"lngE6" : -112034950,
								"guid" : "2a9f491a86c94f8dbefd305f5d6ea6fc.12"
							}
						]],
					"plextType" : "SYSTEM_BROADCAST",
					"team" : "ALIENS"
				}
			}
		], ["6dca0671865c4c50ad84a6989fc2cc45.d", 1366819660467, {
				"plext" : {
					"text" : "fortify45 created a Control Field @Abraham Markosian Library (Taylorsville, UT, United States) +6 MUs",
					"markup" : [["PLAYER", {
								"plain" : "fortify45",
								"guid" : "7efd28d64ce84c7792500f38e5b859a2.c",
								"team" : "ALIENS"
							}
						], ["TEXT", {
								"plain" : " created a Control Field @"
							}
						], ["PORTAL", {
								"name" : "Abraham Markosian Library",
								"plain" : "Abraham Markosian Library (Taylorsville, UT, United States)",
								"team" : "ALIENS",
								"latE6" : 40672457,
								"address" : "Taylorsville, UT, United States",
								"lngE6" : -111944397,
								"guid" : "30116aa49ce74cc69f8fc646b6d7d125.12"
							}
						], ["TEXT", {
								"plain" : " +"
							}
						], ["TEXT", {
								"plain" : "6"
							}
						], ["TEXT", {
								"plain" : " MUs"
							}
						]],
					"plextType" : "SYSTEM_BROADCAST",
					"team" : "ALIENS"
				}
			}
		], ["7513642e544244f6b463178ddc7c7c99.d", 1366819660467, {
				"plext" : {
					"text" : "fortify45 linked Abraham Markosian Library (Taylorsville, UT, United States) to ATC Memorial (Bruin Boulevard, Taylorsville, UT)",
					"markup" : [["PLAYER", {
								"plain" : "fortify45",
								"guid" : "7efd28d64ce84c7792500f38e5b859a2.c",
								"team" : "ALIENS"
							}
						], ["TEXT", {
								"plain" : " linked "
							}
						], ["PORTAL", {
								"name" : "Abraham Markosian Library",
								"plain" : "Abraham Markosian Library (Taylorsville, UT, United States)",
								"team" : "ALIENS",
								"latE6" : 40672457,
								"address" : "Taylorsville, UT, United States",
								"lngE6" : -111944397,
								"guid" : "30116aa49ce74cc69f8fc646b6d7d125.12"
							}
						], ["TEXT", {
								"plain" : " to "
							}
						], ["PORTAL", {
								"name" : "ATC Memorial",
								"plain" : "ATC Memorial (Bruin Boulevard, Taylorsville, UT)",
								"team" : "ALIENS",
								"latE6" : 40671080,
								"address" : "Bruin Boulevard, Taylorsville, UT",
								"lngE6" : -111942633,
								"guid" : "e376cb22c4424a3f84d6b39ae600e7fd.11"
							}
						]],
					"plextType" : "SYSTEM_BROADCAST",
					"team" : "ALIENS"
				}
			}
		], ["5cf0dad863534cf09d58359031b8eccc.d", 1366819647953, {
				"plext" : {
					"text" : "fortify45 created a Control Field @Abraham Markosian Library (Taylorsville, UT, United States) +4 MUs",
					"markup" : [["PLAYER", {
								"plain" : "fortify45",
								"guid" : "7efd28d64ce84c7792500f38e5b859a2.c",
								"team" : "ALIENS"
							}
						], ["TEXT", {
								"plain" : " created a Control Field @"
							}
						], ["PORTAL", {
								"name" : "Abraham Markosian Library",
								"plain" : "Abraham Markosian Library (Taylorsville, UT, United States)",
								"team" : "ALIENS",
								"latE6" : 40672457,
								"address" : "Taylorsville, UT, United States",
								"lngE6" : -111944397,
								"guid" : "30116aa49ce74cc69f8fc646b6d7d125.12"
							}
						], ["TEXT", {
								"plain" : " +"
							}
						], ["TEXT", {
								"plain" : "4"
							}
						], ["TEXT", {
								"plain" : " MUs"
							}
						]],
					"plextType" : "SYSTEM_BROADCAST",
					"team" : "ALIENS"
				}
			}
		], ["dbf08894a26e44eb95fbb7f5c470d203.d", 1366819647953, {
				"plext" : {
					"text" : "fortify45 linked Abraham Markosian Library (Taylorsville, UT, United States) to Applied Technology Center (Bruin Boulevard, Taylorsville, UT)",
					"markup" : [["PLAYER", {
								"plain" : "fortify45",
								"guid" : "7efd28d64ce84c7792500f38e5b859a2.c",
								"team" : "ALIENS"
							}
						], ["TEXT", {
								"plain" : " linked "
							}
						], ["PORTAL", {
								"name" : "Abraham Markosian Library",
								"plain" : "Abraham Markosian Library (Taylorsville, UT, United States)",
								"team" : "ALIENS",
								"latE6" : 40672457,
								"address" : "Taylorsville, UT, United States",
								"lngE6" : -111944397,
								"guid" : "30116aa49ce74cc69f8fc646b6d7d125.12"
							}
						], ["TEXT", {
								"plain" : " to "
							}
						], ["PORTAL", {
								"name" : "Applied Technology Center",
								"plain" : "Applied Technology Center (Bruin Boulevard, Taylorsville, UT)",
								"team" : "ALIENS",
								"latE6" : 40670850,
								"address" : "Bruin Boulevard, Taylorsville, UT",
								"lngE6" : -111942721,
								"guid" : "7efb0856fcdf4a75bb9fb0eb0fdac9c2.11"
							}
						]],
					"plextType" : "SYSTEM_BROADCAST",
					"team" : "ALIENS"
				}
			}
		], ["7999c77fdcfb475ebf9acfb12937cac8.d", 1366819605175, {
				"plext" : {
					"text" : "Ston linked US Post Office (Utah, UT, United States) to Draper Fire Department (780 East 12300 South, Draper, UT 84020, United States)",
					"markup" : [["PLAYER", {
								"plain" : "Ston",
								"guid" : "52a0d0a6b7c34466b91b74b3527b17f3.c",
								"team" : "RESISTANCE"
							}
						], ["TEXT", {
								"plain" : " linked "
							}
						], ["PORTAL", {
								"name" : "US Post Office",
								"plain" : "US Post Office (Utah, UT, United States)",
								"team" : "RESISTANCE",
								"latE6" : 40529308,
								"address" : "Utah, UT, United States",
								"lngE6" : -111882637,
								"guid" : "4a73386ae3fd4e3c9ea81411b01a84eb.12"
							}
						], ["TEXT", {
								"plain" : " to "
							}
						], ["PORTAL", {
								"name" : "Draper Fire Department",
								"plain" : "Draper Fire Department (780 East 12300 South, Draper, UT 84020, United States)",
								"team" : "RESISTANCE",
								"latE6" : 40526679,
								"address" : "780 East 12300 South, Draper, UT 84020, United States",
								"lngE6" : -111869021,
								"guid" : "a2c51d38a8bf4ff9a99176a7b03ae187.12"
							}
						]],
					"plextType" : "SYSTEM_BROADCAST",
					"team" : "RESISTANCE"
				}
			}
		], ["124feb7941774e8491bb787e6f446017.d", 1366819591214, {
				"plext" : {
					"text" : "LXXI linked Herriman War Veterans Memorial (6018 Heritage Hill Dr, Herriman, UT) to Pioneer Rock Church (13044 S 6000 W, Herriman, UT)",
					"markup" : [["PLAYER", {
								"plain" : "LXXI",
								"guid" : "e9c80611d18f4765b30f0e64023a4755.c",
								"team" : "ALIENS"
							}
						], ["TEXT", {
								"plain" : " linked "
							}
						], ["PORTAL", {
								"name" : "Herriman War Veterans Memorial",
								"plain" : "Herriman War Veterans Memorial (6018 Heritage Hill Dr, Herriman, UT)",
								"team" : "ALIENS",
								"latE6" : 40524818,
								"address" : "6018 Heritage Hill Dr, Herriman, UT",
								"lngE6" : -112035095,
								"guid" : "5867e53b8a8a46278854873178988152.12"
							}
						], ["TEXT", {
								"plain" : " to "
							}
						], ["PORTAL", {
								"name" : "Pioneer Rock Church",
								"plain" : "Pioneer Rock Church (13044 S 6000 W, Herriman, UT)",
								"team" : "ALIENS",
								"latE6" : 40515005,
								"address" : "13044 S 6000 W, Herriman, UT",
								"lngE6" : -112032851,
								"guid" : "0466271690294c528ecc9d763af54866.12"
							}
						]],
					"plextType" : "SYSTEM_BROADCAST",
					"team" : "ALIENS"
				}
			}
		], ["9a6ab77bd8c04e8db266a096aa36d123.d", 1366819591214, {
				"plext" : {
					"text" : "LXXI created a Control Field @Herriman War Veterans Memorial (6018 Heritage Hill Dr, Herriman, UT) +106 MUs",
					"markup" : [["PLAYER", {
								"plain" : "LXXI",
								"guid" : "e9c80611d18f4765b30f0e64023a4755.c",
								"team" : "ALIENS"
							}
						], ["TEXT", {
								"plain" : " created a Control Field @"
							}
						], ["PORTAL", {
								"name" : "Herriman War Veterans Memorial",
								"plain" : "Herriman War Veterans Memorial (6018 Heritage Hill Dr, Herriman, UT)",
								"team" : "ALIENS",
								"latE6" : 40524818,
								"address" : "6018 Heritage Hill Dr, Herriman, UT",
								"lngE6" : -112035095,
								"guid" : "5867e53b8a8a46278854873178988152.12"
							}
						], ["TEXT", {
								"plain" : " +"
							}
						], ["TEXT", {
								"plain" : "106"
							}
						], ["TEXT", {
								"plain" : " MUs"
							}
						]],
					"plextType" : "SYSTEM_BROADCAST",
					"team" : "ALIENS"
				}
			}
		], ["5fda26698cb34f1fa34049b722bb326e.d", 1366819588997, {
				"plext" : {
					"text" : "LXXII linked Herriman War Veterans Memorial (6018 Heritage Hill Dr, Herriman, UT) to Fort Herriman (12559-12667 N Pioneer St, Herriman, UT)",
					"markup" : [["PLAYER", {
								"plain" : "LXXII",
								"guid" : "e5085fd9791545b5a44f0c125ccd8b41.c",
								"team" : "ALIENS"
							}
						], ["TEXT", {
								"plain" : " linked "
							}
						], ["PORTAL", {
								"name" : "Herriman War Veterans Memorial",
								"plain" : "Herriman War Veterans Memorial (6018 Heritage Hill Dr, Herriman, UT)",
								"team" : "ALIENS",
								"latE6" : 40524818,
								"address" : "6018 Heritage Hill Dr, Herriman, UT",
								"lngE6" : -112035095,
								"guid" : "5867e53b8a8a46278854873178988152.12"
							}
						], ["TEXT", {
								"plain" : " to "
							}
						], ["PORTAL", {
								"name" : "Fort Herriman",
								"plain" : "Fort Herriman (12559-12667 N Pioneer St, Herriman, UT)",
								"team" : "ALIENS",
								"latE6" : 40520748,
								"address" : "12559-12667 N Pioneer St, Herriman, UT",
								"lngE6" : -112032888,
								"guid" : "ae205709d5024f9ba695fda41f4d9fb5.12"
							}
						]],
					"plextType" : "SYSTEM_BROADCAST",
					"team" : "ALIENS"
				}
			}
		], ["bbbb2f246df64500bcf6e968dff05ff0.d", 1366819588997, {
				"plext" : {
					"text" : "LXXII created a Control Field @Herriman War Veterans Memorial (6018 Heritage Hill Dr, Herriman, UT) +38 MUs",
					"markup" : [["PLAYER", {
								"plain" : "LXXII",
								"guid" : "e5085fd9791545b5a44f0c125ccd8b41.c",
								"team" : "ALIENS"
							}
						], ["TEXT", {
								"plain" : " created a Control Field @"
							}
						], ["PORTAL", {
								"name" : "Herriman War Veterans Memorial",
								"plain" : "Herriman War Veterans Memorial (6018 Heritage Hill Dr, Herriman, UT)",
								"team" : "ALIENS",
								"latE6" : 40524818,
								"address" : "6018 Heritage Hill Dr, Herriman, UT",
								"lngE6" : -112035095,
								"guid" : "5867e53b8a8a46278854873178988152.12"
							}
						], ["TEXT", {
								"plain" : " +"
							}
						], ["TEXT", {
								"plain" : "38"
							}
						], ["TEXT", {
								"plain" : " MUs"
							}
						]],
					"plextType" : "SYSTEM_BROADCAST",
					"team" : "ALIENS"
				}
			}
		], ["e911a620374c4caba3ba8f62994e4e28.d", 1366819515152, {
				"plext" : {
					"text" : "LXXI linked Herriman City Cemetery Memoria (6018 Heritage Hill Dr, Herriman, UT) to Oquirrh Lake Boardwalk (Boardwalk, South Jordan, UT)",
					"markup" : [["PLAYER", {
								"plain" : "LXXI",
								"guid" : "e9c80611d18f4765b30f0e64023a4755.c",
								"team" : "ALIENS"
							}
						], ["TEXT", {
								"plain" : " linked "
							}
						], ["PORTAL", {
								"name" : "Herriman City Cemetery Memoria",
								"plain" : "Herriman City Cemetery Memoria (6018 Heritage Hill Dr, Herriman, UT)",
								"team" : "ALIENS",
								"latE6" : 40525059,
								"address" : "6018 Heritage Hill Dr, Herriman, UT",
								"lngE6" : -112034950,
								"guid" : "2a9f491a86c94f8dbefd305f5d6ea6fc.12"
							}
						], ["TEXT", {
								"plain" : " to "
							}
						], ["PORTAL", {
								"name" : "Oquirrh Lake Boardwalk",
								"plain" : "Oquirrh Lake Boardwalk (Boardwalk, South Jordan, UT)",
								"team" : "ALIENS",
								"latE6" : 40559970,
								"address" : "Boardwalk, South Jordan, UT",
								"lngE6" : -112001686,
								"guid" : "979990515c68458f97aab5a1ae894fec.11"
							}
						]],
					"plextType" : "SYSTEM_BROADCAST",
					"team" : "ALIENS"
				}
			}
		], ["f21f208e241b4496a18c5d3cae8943fd.d", 1366819142336, {
				"plext" : {
					"text" : "[secure] LXXI: @Chadad ty",
					"markup" : [["SECURE", {
								"plain" : "[secure] "
							}
						], ["SENDER", {
								"plain" : "LXXI: ",
								"guid" : "e9c80611d18f4765b30f0e64023a4755.c",
								"team" : "ALIENS"
							}
						], ["TEXT", {
								"plain" : ""
							}
						], ["AT_PLAYER", {
								"plain" : "@Chadad",
								"guid" : "e0421344f40243398c613c652d340e12.c",
								"team" : "ALIENS"
							}
						], ["TEXT", {
								"plain" : " ty"
							}
						]],
					"plextType" : "PLAYER_GENERATED",
					"team" : "ALIENS"
				}
			}
		], ["0934a39f10db4398936428a8346aff25.d", 1366819102184, {
				"plext" : {
					"text" : "[secure] TimRiker: @Sallavarian submit a location change. :)",
					"markup" : [["SECURE", {
								"plain" : "[secure] "
							}
						], ["SENDER", {
								"plain" : "TimRiker: ",
								"guid" : "c0bb250dfeec4839983692c942f330c2.c",
								"team" : "ALIENS"
							}
						], ["TEXT", {
								"plain" : ""
							}
						], ["AT_PLAYER", {
								"plain" : "@Sallavarian",
								"guid" : "be6e0c06adff45708664447f05c95c0e.c",
								"team" : "ALIENS"
							}
						], ["TEXT", {
								"plain" : " submit a location change. :)"
							}
						]],
					"plextType" : "PLAYER_GENERATED",
					"team" : "ALIENS"
				}
			}
		], ["daa77761c8534676844f21de6129e5b6.d", 1366819094961, {
				"plext" : {
					"text" : "[secure] LXXI: apparently my scanner thinks I'm in a hovercraft today...",
					"markup" : [["SECURE", {
								"plain" : "[secure] "
							}
						], ["SENDER", {
								"plain" : "LXXI: ",
								"guid" : "e9c80611d18f4765b30f0e64023a4755.c",
								"team" : "ALIENS"
							}
						], ["TEXT", {
								"plain" : "apparently my scanner thinks I'm in a hovercraft today..."
							}
						]],
					"plextType" : "PLAYER_GENERATED",
					"team" : "ALIENS"
				}
			}
		], ["316dcf50006e4d318b1db6636254ce78.d", 1366819031131, {
				"plext" : {
					"text" : "[secure] TimRiker: @ab0mb7068073 did you find me on G+? send me your gmail address there.",
					"markup" : [["SECURE", {
								"plain" : "[secure] "
							}
						], ["SENDER", {
								"plain" : "TimRiker: ",
								"guid" : "c0bb250dfeec4839983692c942f330c2.c",
								"team" : "ALIENS"
							}
						], ["TEXT", {
								"plain" : ""
							}
						], ["AT_PLAYER", {
								"plain" : "@ab0mb7068073",
								"guid" : "cbef7fcd42674314951bbca864cbb6bd.c",
								"team" : "ALIENS"
							}
						], ["TEXT", {
								"plain" : " did you find me on G+? send me your gmail address there."
							}
						]],
					"plextType" : "PLAYER_GENERATED",
					"team" : "ALIENS"
				}
			}
		], ["474c1ced0fee4deeb25a596fe297b5dc.d", 1366818953646, {
				"plext" : {
					"text" : "nightfury06 created a Control Field @IMAA Tae Kwon Do (West Harvest Hills Boulevard, Saratoga Springs, UT) +3 MUs",
					"markup" : [["PLAYER", {
								"plain" : "nightfury06",
								"guid" : "c43b7875cd164464b263daac348309aa.c",
								"team" : "ALIENS"
							}
						], ["TEXT", {
								"plain" : " created a Control Field @"
							}
						], ["PORTAL", {
								"name" : "IMAA Tae Kwon Do",
								"plain" : "IMAA Tae Kwon Do (West Harvest Hills Boulevard, Saratoga Springs, UT)",
								"team" : "ALIENS",
								"latE6" : 40399045,
								"address" : "West Harvest Hills Boulevard, Saratoga Springs, UT",
								"lngE6" : -111920049,
								"guid" : "cc025eac5d80478b95d2983d31d8c4be.11"
							}
						], ["TEXT", {
								"plain" : " +"
							}
						], ["TEXT", {
								"plain" : "3"
							}
						], ["TEXT", {
								"plain" : " MUs"
							}
						]],
					"plextType" : "SYSTEM_BROADCAST",
					"team" : "ALIENS"
				}
			}
		], ["e0276b3286554e8fb4a5d1b9c1c90a40.d", 1366818953646, {
				"plext" : {
					"text" : "nightfury06 linked IMAA Tae Kwon Do (West Harvest Hills Boulevard, Saratoga Springs, UT) to Veterans Memorial at camp Will (17001-17713 South Redwood Road, Bluffdale, UT)",
					"markup" : [["PLAYER", {
								"plain" : "nightfury06",
								"guid" : "c43b7875cd164464b263daac348309aa.c",
								"team" : "ALIENS"
							}
						], ["TEXT", {
								"plain" : " linked "
							}
						], ["PORTAL", {
								"name" : "IMAA Tae Kwon Do",
								"plain" : "IMAA Tae Kwon Do (West Harvest Hills Boulevard, Saratoga Springs, UT)",
								"team" : "ALIENS",
								"latE6" : 40399045,
								"address" : "West Harvest Hills Boulevard, Saratoga Springs, UT",
								"lngE6" : -111920049,
								"guid" : "cc025eac5d80478b95d2983d31d8c4be.11"
							}
						], ["TEXT", {
								"plain" : " to "
							}
						], ["PORTAL", {
								"name" : "Veterans Memorial at camp Will",
								"plain" : "Veterans Memorial at camp Will (17001-17713 South Redwood Road, Bluffdale, UT)",
								"team" : "ALIENS",
								"latE6" : 40440174,
								"address" : "17001-17713 South Redwood Road, Bluffdale, UT",
								"lngE6" : -111931513,
								"guid" : "3cb28e476495467995b51650a4fa3e7a.11"
							}
						]],
					"plextType" : "SYSTEM_BROADCAST",
					"team" : "ALIENS"
				}
			}
		], ["3ac9d942f34b4fa9a9661d54bcae5625.d", 1366818798185, {
				"plext" : {
					"text" : "Theoderik destroyed a Control Field @Jamba Juice Valley Fair Mall - UT (3567 S. 2700 W. West Valley City, UT) -662 MUs",
					"markup" : [["PLAYER", {
								"plain" : "Theoderik",
								"guid" : "7afa94e0ddeb461e8337104b5e6c205f.c",
								"team" : "RESISTANCE"
							}
						], ["TEXT", {
								"plain" : " destroyed a Control Field @"
							}
						], ["PORTAL", {
								"name" : "Jamba Juice Valley Fair Mall - UT",
								"plain" : "Jamba Juice Valley Fair Mall - UT (3567 S. 2700 W. West Valley City, UT)",
								"team" : "ALIENS",
								"latE6" : 40693705,
								"address" : "3567 S. 2700 W. West Valley City, UT",
								"lngE6" : -111955940,
								"guid" : "249eee223be0414f9c1a5705cfacf31b.12"
							}
						], ["TEXT", {
								"plain" : " -"
							}
						], ["TEXT", {
								"plain" : "662"
							}
						], ["TEXT", {
								"plain" : " MUs"
							}
						]],
					"plextType" : "SYSTEM_BROADCAST",
					"team" : "RESISTANCE"
				}
			}
		], ["c77bccb4a4314cc29445e72097df17d8.d", 1366818798185, {
				"plext" : {
					"text" : "Theoderik destroyed the Link US Post Office (1760 W 2100 S, Salt Lake City, UT 84119, United States) to US Geological Survey Info Cent (2329 West Orton Circle, Salt Lake City, UT 84119, United States)",
					"markup" : [["PLAYER", {
								"plain" : "Theoderik",
								"guid" : "7afa94e0ddeb461e8337104b5e6c205f.c",
								"team" : "RESISTANCE"
							}
						], ["TEXT", {
								"plain" : " destroyed the Link "
							}
						], ["PORTAL", {
								"name" : "US Post Office",
								"plain" : "US Post Office (1760 W 2100 S, Salt Lake City, UT 84119, United States)",
								"team" : "ALIENS",
								"latE6" : 40726803,
								"address" : "1760 W 2100 S, Salt Lake City, UT 84119, United States",
								"lngE6" : -111941071,
								"guid" : "35d945aa434d4cde8d922a10192fb643.12"
							}
						], ["TEXT", {
								"plain" : " to "
							}
						], ["PORTAL", {
								"name" : "US Geological Survey Info Cent",
								"plain" : "US Geological Survey Info Cent (2329 West Orton Circle, Salt Lake City, UT 84119, United States)",
								"team" : "ALIENS",
								"latE6" : 40718596,
								"address" : "2329 West Orton Circle, Salt Lake City, UT 84119, United States",
								"lngE6" : -111950504,
								"guid" : "b18fbcadd0f448b3bd848036e3ff1715.12"
							}
						]],
					"plextType" : "SYSTEM_BROADCAST",
					"team" : "ALIENS"
				}
			}
		], ["caf22e7136574e3fb0e3a83b3aff0c31.d", 1366818798185, {
				"plext" : {
					"text" : "Theoderik destroyed a Control Field @US Post Office (1760 W 2100 S, Salt Lake City, UT 84119, United States) -527 MUs",
					"markup" : [["PLAYER", {
								"plain" : "Theoderik",
								"guid" : "7afa94e0ddeb461e8337104b5e6c205f.c",
								"team" : "RESISTANCE"
							}
						], ["TEXT", {
								"plain" : " destroyed a Control Field @"
							}
						], ["PORTAL", {
								"name" : "US Post Office",
								"plain" : "US Post Office (1760 W 2100 S, Salt Lake City, UT 84119, United States)",
								"team" : "ALIENS",
								"latE6" : 40726803,
								"address" : "1760 W 2100 S, Salt Lake City, UT 84119, United States",
								"lngE6" : -111941071,
								"guid" : "35d945aa434d4cde8d922a10192fb643.12"
							}
						], ["TEXT", {
								"plain" : " -"
							}
						], ["TEXT", {
								"plain" : "527"
							}
						], ["TEXT", {
								"plain" : " MUs"
							}
						]],
					"plextType" : "SYSTEM_BROADCAST",
					"team" : "RESISTANCE"
				}
			}
		], ["e8981ee5c3724f5f947f5a19b5313b5a.d", 1366818798185, {
				"plext" : {
					"text" : "Theoderik destroyed the Link Jamba Juice Valley Fair Mall - UT (3567 S. 2700 W. West Valley City, UT) to US Post Office (1760 W 2100 S, Salt Lake City, UT 84119, United States)",
					"markup" : [["PLAYER", {
								"plain" : "Theoderik",
								"guid" : "7afa94e0ddeb461e8337104b5e6c205f.c",
								"team" : "RESISTANCE"
							}
						], ["TEXT", {
								"plain" : " destroyed the Link "
							}
						], ["PORTAL", {
								"name" : "Jamba Juice Valley Fair Mall - UT",
								"plain" : "Jamba Juice Valley Fair Mall - UT (3567 S. 2700 W. West Valley City, UT)",
								"team" : "ALIENS",
								"latE6" : 40693705,
								"address" : "3567 S. 2700 W. West Valley City, UT",
								"lngE6" : -111955940,
								"guid" : "249eee223be0414f9c1a5705cfacf31b.12"
							}
						], ["TEXT", {
								"plain" : " to "
							}
						], ["PORTAL", {
								"name" : "US Post Office",
								"plain" : "US Post Office (1760 W 2100 S, Salt Lake City, UT 84119, United States)",
								"team" : "ALIENS",
								"latE6" : 40726803,
								"address" : "1760 W 2100 S, Salt Lake City, UT 84119, United States",
								"lngE6" : -111941071,
								"guid" : "35d945aa434d4cde8d922a10192fb643.12"
							}
						]],
					"plextType" : "SYSTEM_BROADCAST",
					"team" : "ALIENS"
				}
			}
		], ["fadfe7dc141947d1ba8f0b7d40959c63.d", 1366818798185, {
				"plext" : {
					"text" : "Theoderik destroyed the Link West Valley City Park (3400-3426 South 4400 West, West Valley City, UT) to US Post Office (1760 W 2100 S, Salt Lake City, UT 84119, United States)",
					"markup" : [["PLAYER", {
								"plain" : "Theoderik",
								"guid" : "7afa94e0ddeb461e8337104b5e6c205f.c",
								"team" : "RESISTANCE"
							}
						], ["TEXT", {
								"plain" : " destroyed the Link "
							}
						], ["PORTAL", {
								"name" : "West Valley City Park",
								"plain" : "West Valley City Park (3400-3426 South 4400 West, West Valley City, UT)",
								"team" : "ALIENS",
								"latE6" : 40698366,
								"address" : "3400-3426 South 4400 West, West Valley City, UT",
								"lngE6" : -111996327,
								"guid" : "8b192b4d1d954fe682526842f5adee5f.11"
							}
						], ["TEXT", {
								"plain" : " to "
							}
						], ["PORTAL", {
								"name" : "US Post Office",
								"plain" : "US Post Office (1760 W 2100 S, Salt Lake City, UT 84119, United States)",
								"team" : "ALIENS",
								"latE6" : 40726803,
								"address" : "1760 W 2100 S, Salt Lake City, UT 84119, United States",
								"lngE6" : -111941071,
								"guid" : "35d945aa434d4cde8d922a10192fb643.12"
							}
						]],
					"plextType" : "SYSTEM_BROADCAST",
					"team" : "ALIENS"
				}
			}
		], ["0a6ad5530dbc45838c79644f747f7e76.d", 1366818752632, {
				"plext" : {
					"text" : "nightfury06 created a Control Field @Harvest Hills Meetinghouse 4 (2212 North Harvest Moon Drive, Saratoga Springs, UT) +1 MUs",
					"markup" : [["PLAYER", {
								"plain" : "nightfury06",
								"guid" : "c43b7875cd164464b263daac348309aa.c",
								"team" : "ALIENS"
							}
						], ["TEXT", {
								"plain" : " created a Control Field @"
							}
						], ["PORTAL", {
								"name" : "Harvest Hills Meetinghouse 4",
								"plain" : "Harvest Hills Meetinghouse 4 (2212 North Harvest Moon Drive, Saratoga Springs, UT)",
								"team" : "ALIENS",
								"latE6" : 40401916,
								"address" : "2212 North Harvest Moon Drive, Saratoga Springs, UT",
								"lngE6" : -111925108,
								"guid" : "05aa59186d6a42af9cf9974020aabef6.11"
							}
						], ["TEXT", {
								"plain" : " +"
							}
						], ["TEXT", {
								"plain" : "1"
							}
						], ["TEXT", {
								"plain" : " MUs"
							}
						]],
					"plextType" : "SYSTEM_BROADCAST",
					"team" : "ALIENS"
				}
			}
		], ["fe236852bb9a403dae08e54d7b7102d2.d", 1366818752632, {
				"plext" : {
					"text" : "nightfury06 linked Harvest Hills Meetinghouse 4 (2212 North Harvest Moon Drive, Saratoga Springs, UT) to Veterans Memorial at camp Will (17001-17713 South Redwood Road, Bluffdale, UT)",
					"markup" : [["PLAYER", {
								"plain" : "nightfury06",
								"guid" : "c43b7875cd164464b263daac348309aa.c",
								"team" : "ALIENS"
							}
						], ["TEXT", {
								"plain" : " linked "
							}
						], ["PORTAL", {
								"name" : "Harvest Hills Meetinghouse 4",
								"plain" : "Harvest Hills Meetinghouse 4 (2212 North Harvest Moon Drive, Saratoga Springs, UT)",
								"team" : "ALIENS",
								"latE6" : 40401916,
								"address" : "2212 North Harvest Moon Drive, Saratoga Springs, UT",
								"lngE6" : -111925108,
								"guid" : "05aa59186d6a42af9cf9974020aabef6.11"
							}
						], ["TEXT", {
								"plain" : " to "
							}
						], ["PORTAL", {
								"name" : "Veterans Memorial at camp Will",
								"plain" : "Veterans Memorial at camp Will (17001-17713 South Redwood Road, Bluffdale, UT)",
								"team" : "ALIENS",
								"latE6" : 40440174,
								"address" : "17001-17713 South Redwood Road, Bluffdale, UT",
								"lngE6" : -111931513,
								"guid" : "3cb28e476495467995b51650a4fa3e7a.11"
							}
						]],
					"plextType" : "SYSTEM_BROADCAST",
					"team" : "ALIENS"
				}
			}
		]]
}
